amaranth/test.vcd
$comment Generated by Amaranth $end
$date 2022-11-26 11:25:13.634641 $end
$timescale 1 ps $end
$scope module bench $end
$scope module top $end
$scope module blink $end
$var wire 1 ! clk $end
$var wire 1 " rst $end
$var wire 5 # count $end
$var wire 1 $ count_rst $end
$var wire 1 % rgb_led_0__r__o $end
$var wire 1 & rgb_led_0__g__o $end
$var wire 1 ' rgb_led_0__b__o $end
$var wire 1 ( button_0__i $end
$upscope $end
$upscope $end
$upscope $end
$enddefinitions $end
#0
$dumpvars
0!
0"
b0 #
0$
0%
0&
0'
0(
$end
#10416
1!
b1 #
#20832
0!
#31248
1!
b10 #
1'
#41664
0!
#52080
1!
b11 #
#62496
0!
#72912
1&
1!
b100 #
0'
#83328
0!
#93744
1!
b101 #
#104160
0!
#114576
1!
b110 #
1'
#124992
0!
#135408
1!
b111 #
#145824
0!
#156240
1%
1!
0&
b1000 #
0'
#166656
0!
#177072
1!
b1001 #
#187488
0!
#197904
1!
b1010 #
1'
#208320
0!
#218736
1!
b1011 #
#229152
0!
#239568
1&
1!
b1100 #
0'
#249984
0!
#260400
1!
b1101 #
#270816
0!
#281232
1!
b1110 #
1'
#291648
0!
#302064
1!
b1111 #
#312480
0!
#322896
0%
1!
0&
b10000 #
0'
#333312
0!
#343728
1!
b10001 #
#354144
0!
#364560
1!
b10010 #
1'
#374976
0!
#385392
1!
b10011 #
#395808
0!
#406224
1&
1!
b10100 #
0'
#416640
0!
#427056
1!
b10101 #
#437472
0!
#447888
1!
b10110 #
1'
#458304
0!
#468720
1!
b10111 #
#479136
0!
#489552
1%
1!
0&
b11000 #
0'
#499968
0!
#510384
1!
b11001 #
#520800
0!
#531216
1!
b11010 #
1'
#541632
0!
#552048
1!
b11011 #
#562464
0!
#572880
1&
1!
b11100 #
0'
#583296
0!
#593712
1!
b11101 #
#604128
0!
#614544
1!
b11110 #
1'
#624960
0!
#635376
1!
b11111 #
1$
#645792
0!
#656208
0%
1!
0$
0&
b0 #
0'
#666624
0!
#677040
1!
b1 #
#687456
0!
#697872
1!
b10 #
1'
#708288
0!
#718704
1!
b11 #
#729120
0!
#739536
1&
1!
b100 #
0'
#749952
0!
#760368
1!
b101 #
#770784
0!
#781200
1!
b110 #
1'
#791616
0!
#802032
1!
b111 #
#812448
0!
#822864
1%
1!
0&
b1000 #
0'
#833280
0!
#843696
1!
b1001 #
#854112
0!
#864528
1!
b1010 #
1'
#874944
0!
#885360
1!
b1011 #
#895776
0!
#906192
1&
1!
b1100 #
0'
#916608
0!
#927024
1!
b1101 #
#937440
0!
#947856
1!
b1110 #
1'
#958272
0!
#968688
1!
b1111 #
#979104
0!
#989520
0%
1!
0&
b10000 #
0'
#999936
0!
#1010352
1!
b10001 #
#1020768
0!
#1031184
1!
b10010 #
1'
#1041600
0!
#1052016
1!
b10011 #
#1062432
0!
#1072848
1&
1!
b10100 #
0'
#1083264
0!
#1093680
1!
b10101 #
#1104096
0!
#1114512
1!
b10110 #
1'
#1124928
0!
#1135344
1!
b10111 #
#1145760
0!
#1156176
1%
1!
0&
b11000 #
0'
#1166592
0!
#1177008
1!
b11001 #
#1187424
0!
#1197840
1!
b11010 #
1'
#1208256
0!
#1218672
1!
b11011 #
#1229088
0!
#1239504
1&
1!
b11100 #
0'
#1249920
0!
#1260336
1!
b11101 #
